{
	"info": {
		"_postman_id": "10286166-1971-467d-9431-dfa8095ad6a6",
		"name": "Trip",
		"schema": "https://schema.getpostman.com/json/collection/v2.1.0/collection.json"
	},
	"item": [
		{
			"name": "Login",
			"request": {
				"auth": {
					"type": "noauth"
				},
				"method": "POST",
				"header": [
					{
						"key": "Content-Type",
						"name": "Content-Type",
						"value": "application/json",
						"type": "text"
					}
				],
				"body": {
					"mode": "raw",
					"raw": "{\n\t\"email\" : \"tuanlv@itsol.vn\",\n    \"password\" : \"aaa\",\n\t\"gcmkey\": \"abc\"\n}"
				},
				"url": {
					"raw": "https://us-central1-rotripplan.cloudfunctions.net/api/login",
					"protocol": "https",
					"host": [
						"us-central1-rotripplan",
						"cloudfunctions",
						"net"
					],
					"path": [
						"api",
						"login"
					]
				}
			},
			"response": []
		},
		{
			"name": "signup",
			"request": {
				"auth": {
					"type": "noauth"
				},
				"method": "POST",
				"header": [
					{
						"key": "Content-Type",
						"name": "Content-Type",
						"value": "application/json",
						"type": "text"
					}
				],
				"body": {
					"mode": "raw",
					"raw": "{\n\t\"email\" : \"tuanlv@itsol.vn\",\n    \"password\" : \"aaa\",\n    \"gcmKey\" : \"abc\",\n    \"name\" : \"sss\",\n    \"phone\" : \"phone\",\n    \"phonecodeid\" : \"phonecodeid\",\n    \"logintype\" : \"true\"\n}"
				},
				"url": {
					"raw": "http://192.168.1.108:8010/rotripplan/us-central1/api/signup",
					"protocol": "http",
					"host": [
						"192",
						"168",
						"1",
						"108"
					],
					"port": "8010",
					"path": [
						"rotripplan",
						"us-central1",
						"api",
						"signup"
					]
				}
			},
			"response": []
		},
		{
			"name": "viewprofile",
			"request": {
				"auth": {
					"type": "noauth"
				},
				"method": "GET",
				"header": [
					{
						"key": "Content-Type",
						"name": "Content-Type",
						"value": "application/json",
						"type": "text"
					}
				],
				"body": {
					"mode": "raw",
					"raw": "{\n    \"userid\": \"AE1CR0hjLBHSvKlI0SfE\"\n}"
				},
				"url": {
					"raw": "http://192.168.1.108:8010/rotripplan/us-central1/api/viewprofile?userid=AE1CR0hjLBHSvKlI0SfE",
					"protocol": "http",
					"host": [
						"192",
						"168",
						"1",
						"108"
					],
					"port": "8010",
					"path": [
						"rotripplan",
						"us-central1",
						"api",
						"viewprofile"
					],
					"query": [
						{
							"key": "userid",
							"value": "AE1CR0hjLBHSvKlI0SfE"
						}
					]
				}
			},
			"response": []
		},
		{
			"name": "notificationlog",
			"request": {
				"method": "GET",
				"header": [],
				"body": {
					"mode": "raw",
					"raw": ""
				},
				"url": {
					"raw": "http://192.168.1.108:8010/rotripplan/us-central1/api/viewprofile?userId=AE1CR0hjLBHSvKlI0SfE&page=10",
					"protocol": "http",
					"host": [
						"192",
						"168",
						"1",
						"108"
					],
					"port": "8010",
					"path": [
						"rotripplan",
						"us-central1",
						"api",
						"viewprofile"
					],
					"query": [
						{
							"key": "userId",
							"value": "AE1CR0hjLBHSvKlI0SfE"
						},
						{
							"key": "page",
							"value": "10"
						}
					]
				}
			},
			"response": []
		},
		{
			"name": "accepttrip",
			"request": {
				"method": "POST",
				"header": [
					{
						"key": "Content-Type",
						"name": "Content-Type",
						"value": "application/json",
						"type": "text"
					}
				],
				"body": {
					"mode": "raw",
					"raw": "{\n\t\"userId\":\"00chH9NPXdUzYW2hcTXE\",\n\t\"tripId\" :\"dhH0T519OtbO2OKxuU5l\",\n\t\"status\":true \n}"
				},
				"url": {
					"raw": "http://192.168.1.108:8010/rotripplan/us-central1/api/accepttrip",
					"protocol": "http",
					"host": [
						"192",
						"168",
						"1",
						"108"
					],
					"port": "8010",
					"path": [
						"rotripplan",
						"us-central1",
						"api",
						"accepttrip"
					]
				}
			},
			"response": []
		},
		{
			"name": "invitation",
			"request": {
				"method": "POST",
				"header": [
					{
						"key": "Content-Type",
						"name": "Content-Type",
						"value": "application/json",
						"type": "text"
					}
				],
				"body": {
					"mode": "raw",
					"raw": "{\n\t   \"userid\" : \"00chH9NPXdUzYW2hcTXE\",\n        \"tripid\" : \"dhH0T519OtbO2OKxuU5l\",\n        \"members \" :2\n}"
				},
				"url": {
					"raw": "http://192.168.1.132:8010/rotripplan/us-central1/api/invitation",
					"protocol": "http",
					"host": [
						"192",
						"168",
						"1",
						"132"
					],
					"port": "8010",
					"path": [
						"rotripplan",
						"us-central1",
						"api",
						"invitation"
					]
				}
			},
			"response": []
		},
		{
			"name": "requestjointrip",
			"request": {
				"method": "POST",
				"header": [
					{
						"key": "Content-Type",
						"name": "Content-Type",
						"value": "application/json",
						"type": "text"
					}
				],
				"body": {
					"mode": "raw",
					"raw": "{\n\t  \"userid\" : \"00chH9NPXdUzYW2hcTXE\",\n        \"tripid\" : \"dhH0T519OtbO2OKxuU5l\"\n}"
				},
				"url": {
					"raw": "http://192.168.1.132:8010/rotripplan/us-central1/api/requestjointrip",
					"protocol": "http",
					"host": [
						"192",
						"168",
						"1",
						"132"
					],
					"port": "8010",
					"path": [
						"rotripplan",
						"us-central1",
						"api",
						"requestjointrip"
					]
				}
			},
			"response": []
		},
		{
			"name": "acceptjointrip",
			"request": {
				"method": "POST",
				"header": [
					{
						"key": "Content-Type",
						"name": "Content-Type",
						"value": "application/json",
						"type": "text"
					}
				],
				"body": {
					"mode": "raw",
					"raw": "{\n\t\"userId\" : \"00chH9NPXdUzYW2hcTXE\",\n    \"tripId\" : \"c9rBlyZhJFJ820MDvvLg\",\n    \"status\" : true\n}"
				},
				"url": {
					"raw": "http://192.168.1.132:8010/rotripplan/us-central1/api/acceptjointrip",
					"protocol": "http",
					"host": [
						"192",
						"168",
						"1",
						"132"
					],
					"port": "8010",
					"path": [
						"rotripplan",
						"us-central1",
						"api",
						"acceptjointrip"
					]
				}
			},
			"response": []
		},
		{
			"name": "forgotpassword",
			"request": {
				"method": "POST",
				"header": [
					{
						"key": "Content-Type",
						"name": "Content-Type",
						"value": "application/json",
						"type": "text"
					}
				],
				"body": {
					"mode": "raw",
					"raw": "{\n\t\"email\":\"\"\n}"
				},
				"url": {
					"raw": "http://192.168.1.132:8010/rotripplan/us-central1/api/forgotpassword",
					"protocol": "http",
					"host": [
						"192",
						"168",
						"1",
						"132"
					],
					"port": "8010",
					"path": [
						"rotripplan",
						"us-central1",
						"api",
						"forgotpassword"
					]
				}
			},
			"response": []
		},
		{
			"name": "sociallogin",
			"request": {
				"method": "POST",
				"header": [
					{
						"key": "Content-Type",
						"name": "Content-Type",
						"value": "application/json",
						"type": "text"
					}
				],
				"body": {
					"mode": "raw",
					"raw": "{\r\n\"name\": \"tuannb@gmail.com\",\r\n\"accesstoken\": 0123456 ,\r\n\"email\": \"tuannb@gmail.com\",\r\n\"logintype\": \"social\",\r\n\"gcmkey\": \"aabc\"\r\n}"
				},
				"url": {
					"raw": "http://192.168.1.108:8010/rotripplan/us-central1/api/sociallogin",
					"protocol": "http",
					"host": [
						"192",
						"168",
						"1",
						"108"
					],
					"port": "8010",
					"path": [
						"rotripplan",
						"us-central1",
						"api",
						"sociallogin"
					]
				}
			},
			"response": []
		},
		{
			"name": "createtrip",
			"request": {
				"method": "POST",
				"header": [
					{
						"key": "Content-Type",
						"name": "Content-Type",
						"value": "application/json",
						"type": "text"
					}
				],
				"body": {
					"mode": "raw",
					"raw": "{\n\t\t\"ccid\"        : \"ccid\",\n        \"tripname\"    : \"tripname\",\n        \"description\" : \"description\",\n        \"startdate\"   : \"startdate\",\n        \"enddate\"     : \"enddate\",\n        \"starttime\"   : \"starttime\",\n        \"endtime\"     : \"endtime\",\n        \"startpoint\"  : \"startpoint\",\n        \"endpoint\"    : \"endpoint\",\n        \"startlat\"    : \"startlat\",\n        \"startlng\"    : \"startlng\",\n        \"endlat\"      : \"endlat\",\n        \"endlng\"      : \"endlng\",\n        \"image\"       : \"image\",\n        \"triptype\"    : \"triptype\",\n        \"roundtrip\"   : \"roundtrip\",\n        \"members\"     : \"[]\",\n        \"memWallet\"   : \"{}\",\n        \"waypoints\"   : \"{}\",\n        \"total_cost\"  : 0,\n        \"total_paid\"  : 0,\n        \"expenses\"    : \"{}\",\n        \"comments\"    : \"[]\",\n        \"usersComment\": \"[]\",\n        \"likes\"       : \"[]\",\n        \"viewsCount\"  : 0,\n        \"likesCount\"  : 0,\n        \"commentsCount\": 0,\n        \"status\"      : true,\n        \"createdTime\" : \"new Date().getTime()\",\n        \"follow\"      : \"[]\",\n        \"isComment\"   : true,\n        \"showTeamMems\": true,\n        \"maxMembers\"  : 5\n}"
				},
				"url": {
					"raw": "http://192.168.1.108:8010/rotripplan/us-central1/api/createtrip",
					"protocol": "http",
					"host": [
						"192",
						"168",
						"1",
						"108"
					],
					"port": "8010",
					"path": [
						"rotripplan",
						"us-central1",
						"api",
						"createtrip"
					]
				}
			},
			"response": []
		},
		{
			"name": "mytrip",
			"request": {
				"method": "GET",
				"header": [],
				"body": {
					"mode": "raw",
					"raw": ""
				},
				"url": {
					"raw": "http://192.168.1.128:8010/rotripplan/us-central1/api/mytrip?userid=AE1CR0hjLBHSvKlI0SfE&page=0",
					"protocol": "http",
					"host": [
						"192",
						"168",
						"1",
						"128"
					],
					"port": "8010",
					"path": [
						"rotripplan",
						"us-central1",
						"api",
						"mytrip"
					],
					"query": [
						{
							"key": "userid",
							"value": "AE1CR0hjLBHSvKlI0SfE"
						},
						{
							"key": "page",
							"value": "0"
						}
					]
				}
			},
			"response": []
		},
		{
			"name": "tripijoin",
			"request": {
				"method": "GET",
				"header": [],
				"body": {
					"mode": "raw",
					"raw": ""
				},
				"url": {
					"raw": "http://192.168.1.30:8010/rotripplan/us-central1/api/tripijoin?userid=AE1CR0hjLBHSvKlI0SfE&page=0",
					"protocol": "http",
					"host": [
						"192",
						"168",
						"1",
						"30"
					],
					"port": "8010",
					"path": [
						"rotripplan",
						"us-central1",
						"api",
						"tripijoin"
					],
					"query": [
						{
							"key": "userid",
							"value": "AE1CR0hjLBHSvKlI0SfE"
						},
						{
							"key": "page",
							"value": "0"
						}
					]
				}
			},
			"response": []
		},
		{
			"name": "tripnearby",
			"request": {
				"method": "GET",
				"header": [],
				"body": {
					"mode": "raw",
					"raw": ""
				},
				"url": {
					"raw": "http://192.168.1.30:8010/rotripplan/us-central1/api/tripnearby?userid=AE1CR0hjLBHSvKlI0SfE&page=0&lat=21.0245&lng=105.84117",
					"protocol": "http",
					"host": [
						"192",
						"168",
						"1",
						"30"
					],
					"port": "8010",
					"path": [
						"rotripplan",
						"us-central1",
						"api",
						"tripnearby"
					],
					"query": [
						{
							"key": "userid",
							"value": "AE1CR0hjLBHSvKlI0SfE"
						},
						{
							"key": "page",
							"value": "0"
						},
						{
							"key": "lat",
							"value": "21.0245"
						},
						{
							"key": "lng",
							"value": "105.84117"
						}
					]
				}
			},
			"response": []
		},
		{
			"name": "tripdetail",
			"request": {
				"method": "GET",
				"header": [],
				"body": {
					"mode": "raw",
					"raw": ""
				},
				"url": {
					"raw": "http://192.168.1.30:8010/rotripplan/us-central1/api/tripdetail?tripid=dhH0T519OtbO2OKxuU5l",
					"protocol": "http",
					"host": [
						"192",
						"168",
						"1",
						"30"
					],
					"port": "8010",
					"path": [
						"rotripplan",
						"us-central1",
						"api",
						"tripdetail"
					],
					"query": [
						{
							"key": "tripid",
							"value": "dhH0T519OtbO2OKxuU5l"
						}
					]
				}
			},
			"response": []
		},
		{
			"name": "edittrip",
			"request": {
				"method": "POST",
				"header": [
					{
						"key": "Content-Type",
						"name": "Content-Type",
						"value": "application/json",
						"type": "text"
					}
				],
				"body": {
					"mode": "raw",
					"raw": "{\r\n\t\"edittype\":\"1\",\r\n\t\"tripid\":\"dhH0T519OtbO2OKxuU5l\",\r\n\t\"waypoint\":[],\r\n\t\"favourite\":true,\r\n\t\"image\":\"\",\r\n\t\"ccid\":\"\",\r\n\t\"description\":\"\",\r\n\t\"startdate\":\"\",\r\n\t\"enddate\":\"\",\r\n\t\"starttime\":\"\",\r\n\t\"endtime\":\"\",\r\n\t\"triptype\":\"\",\r\n\t\"roundtrip\":\"\",\r\n\t\"member\":\"\",\r\n\t\"expenses\":\"\"\r\n}"
				},
				"url": {
					"raw": "http://192.168.1.30:8010/rotripplan/us-central1/api/edittrip",
					"protocol": "http",
					"host": [
						"192",
						"168",
						"1",
						"30"
					],
					"port": "8010",
					"path": [
						"rotripplan",
						"us-central1",
						"api",
						"edittrip"
					]
				}
			},
			"response": []
		},
		{
			"name": "removetrip",
			"request": {
				"method": "GET",
				"header": [],
				"body": {
					"mode": "raw",
					"raw": ""
				},
				"url": {
					"raw": "http://192.168.1.30:8010/rotripplan/us-central1/api/removetrip?userid=00chH9NPXdUzYW2hcTXE\n&tripid=dhH0T519OtbO2OKxuU5l",
					"protocol": "http",
					"host": [
						"192",
						"168",
						"1",
						"30"
					],
					"port": "8010",
					"path": [
						"rotripplan",
						"us-central1",
						"api",
						"removetrip"
					],
					"query": [
						{
							"key": "userid",
							"value": "00chH9NPXdUzYW2hcTXE\n"
						},
						{
							"key": "tripid",
							"value": "dhH0T519OtbO2OKxuU5l"
						}
					]
				}
			},
			"response": []
		},
		{
			"name": "waypointdelete",
			"request": {
				"method": "POST",
				"header": [
					{
						"key": "Content-Type",
						"name": "Content-Type",
						"value": "application/json",
						"type": "text"
					}
				],
				"body": {
					"mode": "raw",
					"raw": "{\n\t\"ccid\":\"c9rBlyZhJFJ820MDvvLg\",\n\t\"tripid\":\"yukTcfGzJt33ScgFcikn\",\n    \"waypointid\":\"G5fd09WjZSDmxZyqlpiA\"\n}"
				},
				"url": {
					"raw": "http://192.168.1.30:8010/rotripplan/us-central1/api/waypointdelete",
					"protocol": "http",
					"host": [
						"192",
						"168",
						"1",
						"30"
					],
					"port": "8010",
					"path": [
						"rotripplan",
						"us-central1",
						"api",
						"waypointdelete"
					]
				}
			},
			"response": []
		},
		{
			"name": "getregisteredfriends",
			"request": {
				"method": "POST",
				"header": [
					{
						"key": "Content-Type",
						"name": "Content-Type",
						"value": "application/json",
						"type": "text"
					}
				],
				"body": {
					"mode": "raw",
					"raw": " {\r\n \t\"phones\":[\"1234\",\"1233\"],\r\n \t\"emails\":\"\"\r\n }\r\n "
				},
				"url": {
					"raw": "http://192.168.1.108:8010/rotripplan/us-central1/api/getregisteredfriends",
					"protocol": "http",
					"host": [
						"192",
						"168",
						"1",
						"108"
					],
					"port": "8010",
					"path": [
						"rotripplan",
						"us-central1",
						"api",
						"getregisteredfriends"
					]
				}
			},
			"response": []
		},
		{
			"name": "/createNewPost",
			"request": {
				"method": "POST",
				"header": [
					{
						"key": "Content-Type",
						"name": "Content-Type",
						"value": "application/json",
						"type": "text"
					}
				],
				"body": {
					"mode": "raw",
					"raw": "{\n\t\"userid\":\"2awbVRQooeZMKEwZoLN1\",\n\t\"tripid\": \"dhH0T519OtbO2OKxuU5l\",\n\t\"videoLink\": \"videoLink\",\n\t\"imageLink\": \"imageLink\",\n\t\"title\": \"title\",\n\t\"contents\": \"post content\",\n\t\"createdTime\": \"createdTime\",\n\t\"status\": \"true\"\n}"
				},
				"url": {
					"raw": "http://192.168.56.1:8010/rotripplan/us-central1/api/createNewPost",
					"host": [
						"192",
						"168",
						"56",
						"1"
					],
					"port": "8010",
					"path": [
						"rotripplan",
						"us-central1",
						"api",
						"createNewPost"
					]
				}
			},
			"response": []
		},
		{
			"name": "comment",
			"request": {
				"method": "POST",
				"header": [
					{
						"key": "Content-Type",
						"value": "application/json"
					}
				],
				"body": {
					"mode": "raw",
					"raw": "{\n\t\"userid\": \"RT0wKThxtazokG78xzFU\",\n\t\"postid\": \"WT9bZkWca39TbOQCKv9I\",\n\t\"content\": \"comment\"\n}"
				},
				"url": {
					"raw": "http://192.168.56.1:8010/rotripplan/us-central1/api/commentCount",
					"protocol": "http",
					"host": [
						"192",
						"168",
						"56",
						"1"
					],
					"port": "8010",
					"path": [
						"rotripplan",
						"us-central1",
						"api",
						"commentCount"
					]
				},
				"description": ""
			},
			"response": []
		},
		{
			"name": "like",
			"request": {
				"method": "POST",
				"header": [
					{
						"key": "Content-Type",
						"value": "application/json"
					}
				],
				"body": {
					"mode": "raw",
					"raw": " {\r\n  \"userid\":\"RT0wKThxtazokG78xzFU\",\r\n  \"postid\":\"WT9bZkWca39TbOQCKv9I\"\r\n }"
				},
				"url": {
					"raw": "http://192.168.56.1:8010/rotripplan/us-central1/api/like",
					"protocol": "http",
					"host": [
						"192",
						"168",
						"56",
						"1"
					],
					"port": "8010",
					"path": [
						"rotripplan",
						"us-central1",
						"api",
						"like"
					]
				},
				"description": ""
			},
			"response": []
		},
		{
			"name": "getFriendActivity",
			"request": {
				"method": "POST",
				"header": [
					{
						"key": "Content-Type",
						"value": "application/json"
					}
				],
				"body": {
					"mode": "raw",
					"raw": "{\n\t\"phones\": [\"098888888\",\"0904293393\",\"84983064605\"],\n\t\"pages\": 25,\n\t\"userid\": \"00chH9NPXdUzYW2hcTXE\"\n}"
				},
				"url": {
					"raw": "http://192.168.56.1:8010/rotripplan/us-central1/api/getFriendActivity",
					"protocol": "http",
					"host": [
						"192",
						"168",
						"56",
						"1"
					],
					"port": "8010",
					"path": [
						"rotripplan",
						"us-central1",
						"api",
						"getFriendActivity"
					]
				},
				"description": ""
			},
			"response": []
		},
		{
			"name": "getUserActivity",
			"request": {
				"method": "GET",
				"header": [
					{
						"key": "Content-Type",
						"value": "application/json"
					}
				],
				"body": {
					"mode": "raw",
					"raw": " {\r\n  \"userid\":\"RT0wKThxtazokG78xzFU\",\r\n  \"page\": \"4\"\r\n }"
				},
				"url": {
					"raw": "http://192.168.56.1:8010/rotripplan/us-central1/api/getUserActivity?userid=RT0wKThxtazokG78xzFU&page=2",
					"protocol": "http",
					"host": [
						"192",
						"168",
						"56",
						"1"
					],
					"port": "8010",
					"path": [
						"rotripplan",
						"us-central1",
						"api",
						"getUserActivity"
					],
					"query": [
						{
							"key": "userid",
							"value": "RT0wKThxtazokG78xzFU",
							"equals": true
						},
						{
							"key": "page",
							"value": "2",
							"equals": true
						}
					]
				},
				"description": ""
			},
			"response": []
		},
		{
			"name": "getFollow",
			"request": {
				"method": "GET",
				"header": [
					{
						"key": "Content-Type",
						"value": "application/json"
					}
				],
				"body": {
					"mode": "raw",
					"raw": "{\n\t\"userid\": \"00chH9NPXdUzYW2hcTXE\",\n\t\"option\": \"add\",\n\t\"type\": \"follower\"\n}"
				},
				"url": {
					"raw": "http://192.168.56.1:8010/rotripplan/us-central1/api/getFollow?userid=00chH9NPXdUzYW2hcTXE&type=follower",
					"protocol": "http",
					"host": [
						"192",
						"168",
						"56",
						"1"
					],
					"port": "8010",
					"path": [
						"rotripplan",
						"us-central1",
						"api",
						"getFollow"
					],
					"query": [
						{
							"key": "userid",
							"value": "00chH9NPXdUzYW2hcTXE",
							"equals": true
						},
						{
							"key": "type",
							"value": "follower",
							"equals": true
						}
					]
				},
				"description": ""
			},
			"response": []
		},
		{
			"name": "updateFollow",
			"request": {
				"method": "POST",
				"header": [
					{
						"key": "Content-Type",
						"value": "application/json"
					}
				],
				"body": {
					"mode": "raw",
					"raw": "{\n\t\"userid\": \"AE1CR0hjLBHSvKlI0SfE\",\n\t\"followId\": \"00chH9NPXdUzYW2hcTXE\",\n\t\"option\": \"block\"\n}"
				},
				"url": {
					"raw": "http://192.168.56.1:8010/rotripplan/us-central1/api/updateFollow",
					"protocol": "http",
					"host": [
						"192",
						"168",
						"56",
						"1"
					],
					"port": "8010",
					"path": [
						"rotripplan",
						"us-central1",
						"api",
						"updateFollow"
					]
				},
				"description": ""
			},
			"response": []
		},
		{
			"name": "updateExpensesTrip",
			"request": {
				"method": "POST",
				"header": [
					{
						"key": "Content-Type",
						"name": "Content-Type",
						"value": "application/json",
						"type": "text"
					}
				],
				"body": {
					"mode": "raw",
					"raw": "{\n\t\"tripid\": \"yukTcfGzJt33ScgFcikn\",\n\t\"name\": \"expense2\",\n\t\"desc\": \"chi phi 2\",\n\t\"cost\": 14,\n\t\"type\": \"1\"\n}"
				},
				"url": {
					"raw": "http://192.168.56.1:8010/rotripplan/us-central1/api/updateExpensesTrip",
					"host": [
						"192",
						"168",
						"56",
						"1"
					],
					"port": "8010",
					"path": [
						"rotripplan",
						"us-central1",
						"api",
						"updateExpensesTrip"
					]
				},
				"description": "updateExpensesTrip"
			},
			"response": []
		},
		{
			"name": "updateMemberWallet",
			"request": {
				"method": "POST",
				"header": [
					{
						"key": "Content-Type",
						"name": "Content-Type",
						"value": "application/json",
						"type": "text"
					}
				],
				"body": {
					"mode": "raw",
					"raw": "{\n\t\"userid\": \"c9rBlyZhJFJ820MDvvLg\",\n\t\"tripid\": \"yukTcfGzJt33ScgFcikn\",\n\t\"paid\": 1234.324\n}"
				},
				"url": {
					"raw": "http://192.168.56.1:8010/rotripplan/us-central1/api/updateMemberWallet",
					"host": [
						"192",
						"168",
						"56",
						"1"
					],
					"port": "8010",
					"path": [
						"rotripplan",
						"us-central1",
						"api",
						"updateMemberWallet"
					]
				}
			},
			"response": []
		},
		{
			"name": "updateprofile",
			"request": {
				"method": "POST",
				"header": [
					{
						"key": "Content-Type",
						"name": "Content-Type",
						"value": "application/json",
						"type": "text"
					}
				],
				"body": {
					"mode": "raw",
					"raw": "{\n\t\"userid\": \"n1cMpystyxgNHDkd6h7K\",\n\t\"gcmKey\": \"223\",\n\t\"name\": \"uhkfjghd\",\n\t\"phone\": \"94835748534\",\n\t\"thumbnail\": \"aaaaaaaaaaaaaaaaaaaaaaa.png\"\n\t\n}"
				},
				"url": {
					"raw": "192.168.56.1:8010/rotripplan/us-central1/api/updateprofile",
					"host": [
						"192",
						"168",
						"56",
						"1"
					],
					"port": "8010",
					"path": [
						"rotripplan",
						"us-central1",
						"api",
						"updateprofile"
					]
				}
			},
			"response": []
		},
		{
			"name": "commentTrip",
			"request": {
				"method": "POST",
				"header": [
					{
						"key": "Content-Type",
						"name": "Content-Type",
						"value": "application/json",
						"type": "text"
					}
				],
				"body": {
					"mode": "raw",
					"raw": "{\n\t\"userid\": \"dgjfgdlf\",\n\t\"tripid\": \"zJSZv6zmr65xG28fEB3E\",\n\t\"content\": \"trip very good\"\n}"
				},
				"url": {
					"raw": "192.168.56.1:8010/rotripplan/us-central1/api/commentTrip",
					"host": [
						"192",
						"168",
						"56",
						"1"
					],
					"port": "8010",
					"path": [
						"rotripplan",
						"us-central1",
						"api",
						"commentTrip"
					]
				}
			},
			"response": []
		},
		{
			"name":"likeTrip",
			"request": {
				"method": "POST",
				"header": [
					{
						"key": "Content-Type",
						"name": "Content-Type",
						"value": "application/json",
						"type": "text"
					}
				],
				"body": {
					"mode": "raw",
					"raw": "{\n\t\"userid\": \"dgjfgdlf\",\n\t\"tripid\": \"zJSZv6zmr65xG28fEB3E\"\n}"
				},
				"url": {
					"raw": "192.168.56.1:8010/rotripplan/us-central1/api/likeTrip",
					"host": [
						"192",
						"168",
						"56",
						"1"
					],
					"port": "8010",
					"path": [
						"rotripplan",
						"us-central1",
						"api",
						"likeTrip"
					]
				}
			},
			"response": []
		},
		{
			"name": "getPostCommunity",
			"request": {
				"method": "GET",
				"header": [],
				"body": {
					"mode": "raw",
					"raw": ""
				},
				"url": {
					"raw": "192.168.56.1:8010/rotripplan/us-central1/api/getPostCommunity?type=2&page=12",
					"host": [
						"192",
						"168",
						"56",
						"1"
					],
					"port": "8010",
					"path": [
						"rotripplan",
						"us-central1",
						"api",
						"getPostCommunity"
					],
					"query": [
						{
							"key": "type",
							"value": "2"
						},
						{
							"key": "page",
							"value": "12"
						}
					]
				}
			},
			"response": []
		},
		{
			"name": "getTripCommunity",
			"protocolProfileBehavior": {
				"disableBodyPruning": true
			},
			"request": {
				"method": "GET",
				"header": [],
				"body": {
					"mode": "raw",
					"raw": ""
				},
				"url": {
					"raw": "192.168.56.1:8010/rotripplan/us-central1/api/getTripCommunity?type=3&page=12",
					"host": [
						"192",
						"168",
						"56",
						"1"
					],
					"port": "8010",
					"path": [
						"rotripplan",
						"us-central1",
						"api",
						"getTripCommunity"
					],
					"query": [
						{
							"key": "type",
							"value": "3"
						},
						{
							"key": "page",
							"value": "12"
						},
						{
							"key": "userid",
							"value": "00chH9NPXdUzYW2hcTXE"
						}
					]
				}
			},
			"response": []
		},
		{
			"name": "getDestinations",
			"request": {
				"method": "GET",
				"header": [],
				"body": {
					"mode": "raw",
					"raw": ""
				},
				"url": {
					"raw": "192.168.56.1:8010/rotripplan/us-central1/api/getDestinations",
					"host": [
						"192",
						"168",
						"56",
						"1"
					],
					"port": "8010",
					"path": [
						"rotripplan",
						"us-central1",
						"api",
						"getDestinations"
					]
				}
			},
			"response": []
		},
		{
			"name": "searchTrips",
			"request": {
				"method": "GET",
				"header": [],
				"body": {
					"mode": "raw",
					"raw": ""
				},
				"url": {
					"raw": "192.168.56.1:8010/rotripplan/us-central1/api/searchTrips?name=test",
					"host": [
						"192",
						"168",
						"56",
						"1"
					],
					"port": "8010",
					"path": [
						"rotripplan",
						"us-central1",
						"api",
						"searchTrips"
					],
					"query": [
						{
							"key": "name",
							"value": "test"
						}
					]
				}
			},
			"response": []
		},
		{
			"name": "acceptTeam",
			"request": {
				"method": "POST",
				"header": [
					{
						"key": "Content-Type",
						"name": "Content-Type",
						"value": "application/json",
						"type": "text"
					}
				],
				"body": {
					"mode": "raw",
					"raw": "{\n\t\"userid\": \"00chH9NPXdUzYW2hcTXE2\",\n\t\"teamid\": \"qYTmcHYt5X2Lbn116Lfj\"\n}"
				},
				"url": {
					"raw": "192.168.56.1:8010/rotripplan/us-central1/api/acceptTeam",
					"host": [
						"192",
						"168",
						"56",
						"1"
					],
					"port": "8010",
					"path": [
						"rotripplan",
						"us-central1",
						"api",
						"acceptTeam"
					]
				}
			},
			"response": []
		},
		{
			"name": "createTeam",
			"request": {
				"method": "POST",
				"header": [
					{
						"key": "Content-Type",
						"name": "Content-Type",
						"value": "application/json",
						"type": "text"
					}
				],
				"body": {
					"mode": "raw",
					"raw": "{\n\t\"userid\": \"00chH9NPXdUzYW2hcTXE\",\n\t\"tripid\": \"dhH0T519OtbO2OKxuU5l\",\n\t\"name\": \"team trip 1\"\n}"
				},
				"url": {
					"raw": "192.168.56.1:8010/rotripplan/us-central1/api/createTeam",
					"host": [
						"192",
						"168",
						"56",
						"1"
					],
					"port": "8010",
					"path": [
						"rotripplan",
						"us-central1",
						"api",
						"createTeam"
					]
				}
			},
			"response": []
		},
		{
			"name": "getTeams",
			"request": {
				"method": "GET",
				"header": [],
				"body": {
					"mode": "raw",
					"raw": ""
				},
				"url": {
					"raw": "192.168.56.1:8010/rotripplan/us-central1/api/getTeams?tripid=dhH0T519OtbO2OKxuU5l&userid=00chH9NPXdUzYW2hcTXE&type=1",
					"host": [
						"192",
						"168",
						"56",
						"1"
					],
					"port": "8010",
					"path": [
						"rotripplan",
						"us-central1",
						"api",
						"getTeam"
					],
					"query": [
						{
							"key": "tripid",
							"value": "dhH0T519OtbO2OKxuU5l"
						}
					]
				}
			},
			"response": []
		},
		{
			"name": "searchData",
			"request": {
				"method": "GET",
				"header": [],
				"body": {
					"mode": "raw",
					"raw": ""
				},
				"url": {
					"raw": "192.168.56.1:8010/rotripplan/us-central1/api/searchData?type=2&userid=jdfhdjqweqwe",
					"host": [
						"192",
						"168",
						"56",
						"1"
					],
					"port": "8010",
					"path": [
						"rotripplan",
						"us-central1",
						"api",
						"searchData"
					],
					"query": [
						{
							"key": "type",
							"value": "2"
						},
						{
							"key": "userid",
							"value": "jdfhdjqweqwe"
						}
					]
				}
			},
			"response": []
		},
		{
			"name": "getCountUserLike",
			"request": {
				"method": "GET",
				"header": [],
				"body": {
					"mode": "raw",
					"raw": ""
				},
				"url": {
					"raw": "192.168.56.1:8010/rotripplan/us-central1/api/getCountUserLike?userid=00chH9NPXdUzYW2hcTXE",
					"host": [
						"192",
						"168",
						"56",
						"1"
					],
					"port": "8010",
					"path": [
						"rotripplan",
						"us-central1",
						"api",
						"getCountLike"
					],
					"query": [
						{
							"key": "userid",
							"value": "00chH9NPXdUzYW2hcTXE"
						}
					]
				}
			},
			"response": []
		},
		{
			"name": "getCountDistanceUser",
			"request": {
				"method": "GET",
				"header": [],
				"body": {
					"mode": "raw",
					"raw": ""
				},
				"url": {
					"raw": "192.168.56.1:8010/rotripplan/us-central1/api/getCountDistanceUser?userid=00chH9NPXdUzYW2hcTXE",
					"host": [
						"192",
						"168",
						"56",
						"1"
					],
					"port": "8010",
					"path": [
						"rotripplan",
						"us-central1",
						"api",
						"getCountLike"
					],
					"query": [
						{
							"key": "userid",
							"value": "00chH9NPXdUzYW2hcTXE"
						}
					]
				}
			},
			"response": []
		},
		{
			"name": "getLastTripJoin",
			"request": {
				"method": "GET",
				"header": [],
				"body": {
					"mode": "raw",
					"raw": ""
				},
				"url": {
					"raw": "192.168.56.1:8010/rotripplan/us-central1/api/getLastTripJoin?userid=00chH9NPXdUzYW2hcTXE",
					"host": [
						"192",
						"168",
						"56",
						"1"
					],
					"port": "8010",
					"path": [
						"rotripplan",
						"us-central1",
						"api",
						"getLastTripJoin"
					],
					"query": [
						{
							"key": "userid",
							"value": "00chH9NPXdUzYW2hcTXE"
						}
					]
				}
			},
			"response": []
		},
		{
			"name": "followTrip",
			"request": {
				"method": "POST",
				"header": [
					{
						"key": "Content-Type",
						"name": "Content-Type",
						"value": "application/json",
						"type": "text"
					}
				],
				"body": {
					"mode": "raw",
					"raw": "{\n\t\"userid\": \"00chH9NPXdUzYW2hcTXE\",\n\t\"tripid\": \"dhH0T519OtbO2OKxuU5l\"\n}"
				},
				"url": {
					"raw": "192.168.56.1:8010/rotripplan/us-central1/api/followTrip",
					"host": [
						"192",
						"168",
						"56",
						"1"
					],
					"port": "8010",
					"path": [
						"rotripplan",
						"us-central1",
						"api",
						"followTrip"
					]
				}
			},
			"response": []
		},
		{
			"name": "activeUser",
			"request": {
				"method": "POST",
				"header": [
					{
						"key": "Content-Type",
						"name": "Content-Type",
						"value": "application/json",
						"type": "text"
					}
				],
				"body": {
					"mode": "raw",
					"raw": "{\n\t\"email\": \"tuanlv@itsol.vn\",\n\t\"password\": \"dAwK5\"\n}"
				},
				"url": {
					"raw": "http://192.168.56.1:8010/rotripplan/us-central1/api/activeUser",
					"protocol": "http",
					"host": [
						"192",
						"168",
						"56",
						"1"
					],
					"port": "8010",
					"path": [
						"rotripplan",
						"us-central1",
						"api",
						"activeUser"
					]
				}
			},
			"response": []
		}
	]
}
